{
  "api_identity": {
    "name": "Project Gutenberg Bookmarked API",
    "version": "1.1.0",
    "production_host": "https://gutenberg-bookmarked-737fe6b6f1ee.herokuapp.com",
    "notes": "Specifies full payload schemas, null handling conventions, error structures, and query parameters to ensure correct client-side mapping."
  },
  "global_security": {
    "protocol": "HTTPS (SSL Required in Production)",
    "auth_method": "Header-based API Key Verification",
    "header_key": "X-Api-Key",
    "header_value": "xSGCpn-wbPBOnMGEooG9x6xnEC5Vtsj_JIys1m7fMRk",
    "alternative_auth": "Authorization: Bearer xSGCpn-wbPBOnMGEooG9x6xnEC5Vtsj_JIys1m7fMRk",
    "notes": "Required for all endpoints except '/' (docs portal), '/health/', and '/static/' asset requests."
  },
  "global_error_handling": {
    "401_unauthorized": {
      "description": "Returned when the API Key is missing or invalid.",
      "response": {
        "error": "Unauthorized",
        "message": "Missing or invalid API key. Set X-Api-Key in request headers."
      }
    },
    "403_forbidden": {
      "description": "Returned when attempting write operations (POST/PUT/DELETE) without administrative permissions.",
      "response": {
        "detail": "Authentication credentials were not provided."
      }
    },
    "404_not_found": {
      "description": "Returned when the requested URL path, book ID, or resource does not exist.",
      "response": {
        "detail": "Not found."
      }
    },
    "500_internal_server_error": {
      "description": "Caught by server-side JsonExceptionMiddleware to ensure mobile client receives structured JSON instead of HTML traceback.",
      "response": {
        "error": "Internal Server Error",
        "message": "An unexpected error occurred on the server. Please check the logs or contact support.",
        "path": "/api/v1/books/"
      }
    },
    "503_service_unavailable": {
      "description": "Heroku H12 Router Timeout (triggered if database lock or connection queue holds request > 30 seconds).",
      "response_html": "<!DOCTYPE html><html><head><title>Application Error</title></head><body>...</body></html>"
    }
  },
  "search_tokenizer_rules": {
    "description": "To prevent timeouts and GIN index scanning overhead on punctuation or common words, queries are normalized before execution:",
    "rules": [
      "Splitting: Search queries are split into terms on all non-alphanumeric boundaries (whitespace, hyphens, quotes, symbols).",
      "Punctuation Stripping: All symbols (e.g. ';', '--', SQL keywords) are discarded. A query containing only symbols (like '   ' or '--;') returns all books unfiltered (no-op).",
      "1-Character Exclusions: If a search contains multiple terms, terms that are only 1 character long (e.g. 'l' in 'l\\'histoire') are ignored, and only longer terms are matched.",
      "Execution Order: Terms are sorted to run non-stop-words first (longest words first), and the matching ID space is iteratively narrowed down in memory. This reduces query times from 30s to <25ms."
    ]
  },
  "data_models": {
    "Person": {
      "name": { "type": "string", "nullable": false, "notes": "Author/Editor/Translator name cleaned of birth/death years." },
      "birth_year": { "type": "integer", "nullable": true, "notes": "4-digit year of birth, null if unknown." },
      "death_year": { "type": "integer", "nullable": true, "notes": "4-digit year of death, null if unknown." }
    },
    "Book": {
      "id": { "type": "integer", "nullable": false, "notes": "Project Gutenberg ID." },
      "title": { "type": "string", "nullable": true, "notes": "Cleaned book title, null if unknown." },
      "authors": { "type": "array of Person", "nullable": false, "notes": "Will be empty list if unknown." },
      "editors": { "type": "array of Person", "nullable": false },
      "translators": { "type": "array of Person", "nullable": false },
      "subjects": { "type": "array of strings", "nullable": false, "notes": "Sorted alphabetically." },
      "bookshelves": { "type": "array of strings", "nullable": false, "notes": "Sorted alphabetically." },
      "languages": { "type": "array of strings", "nullable": false, "notes": "Expanded language names, e.g. ['English']." },
      "copyright": { "type": "boolean", "nullable": true, "notes": "true if copyrighted, false if public domain, null if unknown." },
      "media_type": { "type": "string", "nullable": false, "notes": "Typically 'Text'." },
      "formats": {
        "type": "object",
        "nullable": false,
        "notes": "Map of MIME-type strings to URL strings. Cover image formats point to Amazon S3 CDN presigned URLs."
      },
      "download_count": { "type": "integer", "nullable": true, "notes": "Popularity ranking metric, null if unknown." },
      "summaries": { "type": "array of strings", "nullable": false, "notes": "Short descriptions enriched from Open Library." }
    }
  },
  "endpoints": [
    {
      "name": "API Documentation Portal",
      "description": "Developer landing page, interactive dashboard, and live API request playground.",
      "http_methods": ["GET"],
      "path": "/",
      "requires_auth": false,
      "query_parameters": {},
      "response_content_type": "text/html; charset=utf-8",
      "notes": "Public-facing dashboard page."
    },
    {
      "name": "System Diagnostics Health Check",
      "description": "Performs diagnostics verifying live PostgreSQL database and S3 Bucketeer storage connectivity.",
      "http_methods": ["GET"],
      "path": "/health/",
      "requires_auth": false,
      "query_parameters": {},
      "response_content_type": "application/json",
      "success_response_sample": {
        "status": "healthy",
        "checks": {
          "database": "healthy",
          "storage": "healthy"
        }
      },
      "failure_response_sample": {
        "status": "unhealthy",
        "checks": {
          "database": "failed",
          "storage": "healthy"
        }
      },
      "notes": "Exempted from API Key validation so monitoring systems can poll it easily."
    },
    {
      "name": "Search Autocomplete Suggestions",
      "description": "Exposes lightweight search recommendations suitable for instant search-as-you-type inputs in the app.",
      "http_methods": ["GET"],
      "path": "/api/v1/search/suggest/",
      "legacy_paths": ["/search/suggest/"],
      "requires_auth": true,
      "query_parameters": {
        "q": {
          "type": "string",
          "required": true,
          "description": "Min 2 characters search term. Subject to standard search tokenizer rules (stripped of punctuation/symbols)."
        }
      },
      "response_content_type": "application/json",
      "success_response_sample": [
        {
          "gutenberg_id": 1513,
          "title": "Romeo and Juliet",
          "author": "William Shakespeare",
          "match_field": "title",
          "book": {
            "id": 1513,
            "title": "Romeo and Juliet",
            "authors": [
              {
                "name": "William Shakespeare",
                "birth_year": 1564,
                "death_year": 1616
              }
            ],
            "translators": [],
            "editors": [],
            "subjects": ["Tragedy"],
            "bookshelves": ["Classic Drama"],
            "languages": ["English"],
            "copyright": false,
            "media_type": "Text",
            "formats": {
              "application/epub+zip": "https://www.gutenberg.org/ebooks/1513.epub3.images",
              "text/html": "https://www.gutenberg.org/ebooks/1513.html.images",
              "image/jpeg": "https://bucketeer-a40dd3d4-d3bf-41be-bf7d-fa03be6746d7.s3.amazonaws.com/covers/1513_cover.jpg?AWSAccessKeyId=..."
            },
            "download_count": 12034,
            "summaries": ["A tragic love story..."]
          }
        }
      ],
      "notes": "Returns top 10 matching books sorted by download count. match_field indicates where the query matched first: 'title', 'author', 'summary', 'subject', or 'bookshelf'."
    },
    {
      "name": "Books Metadata Catalog List",
      "description": "Retrieve catalog book details. Supports pagination, sorting, search, and criteria filtering.",
      "http_methods": ["GET"],
      "path": "/api/v1/books/",
      "legacy_paths": ["/books/"],
      "requires_auth": true,
      "query_parameters": {
        "page": {
          "type": "integer",
          "required": false,
          "description": "Page number to view (defaults to page 1)."
        },
        "search": {
          "type": "string",
          "required": false,
          "description": "Case-insensitive terms matching author names, book titles, summaries, subjects, or bookshelves. Follows the search tokenizer rules (punctuation stripped, stop words sorted last)."
        },
        "languages": {
          "type": "string",
          "required": false,
          "description": "Comma-separated two-character language codes (e.g. 'en,fr')."
        },
        "copyright": {
          "type": "string",
          "required": false,
          "description": "Filter by copyright status: 'true' (copyrighted), 'false' (public domain), or 'null'."
        },
        "author_year_start": {
          "type": "integer",
          "required": false,
          "description": "Filters books with authors alive after this year."
        },
        "author_year_end": {
          "type": "integer",
          "required": false,
          "description": "Filters books with authors alive before this year."
        },
        "ids": {
          "type": "string",
          "required": false,
          "description": "Comma-separated list of positive Gutenberg IDs (e.g. '11,12,13')."
        },
        "mime_type": {
          "type": "string",
          "required": false,
          "description": "Filters by format MIME types starting with value (e.g. 'text/html')."
        },
        "topic": {
          "type": "string",
          "required": false,
          "description": "Matches keyword inside bookshelves or subjects."
        },
        "sort": {
          "type": "string",
          "required": false,
          "description": "Ordering types: 'popular' (default, download count), 'ascending' (ID order), 'descending'."
        }
      },
      "response_content_type": "application/json",
      "success_response_sample": {
        "count": 72480,
        "next": "https://gutenberg-bookmarked-737fe6b6f1ee.herokuapp.com/api/v1/books/?page=2",
        "previous": null,
        "results": [
          {
            "id": 84,
            "title": "Frankenstein; or, the modern prometheus",
            "authors": [
              {
                "name": "Mary Wollstonecraft Shelley",
                "birth_year": 1797,
                "death_year": 1851
              }
            ],
            "translators": [],
            "editors": [],
            "subjects": [
              "Frankenstein's monster (Fictitious character)",
              "Horror tales",
              "Monster fiction",
              "Science fiction",
              "Scientists"
            ],
            "bookshelves": [
              "Precursors of Science Fiction",
              "Science Fiction by Women"
            ],
            "languages": ["English"],
            "copyright": false,
            "media_type": "Text",
            "formats": {
              "application/epub+zip": "https://www.gutenberg.org/ebooks/84.epub3.images",
              "text/html": "https://www.gutenberg.org/ebooks/84.html.images",
              "image/jpeg": "https://bucketeer-a40dd3d4-d3bf-41be-bf7d-fa03be6746d7.s3.amazonaws.com/covers/84_cover.jpg?AWSAccessKeyId=..."
            },
            "download_count": 92345,
            "summaries": ["A gothic horror novel..."]
          }
        ]
      },
      "notes": "The next and previous fields are strings containing the direct URL of the next/previous page, or null if on the first/last page."
    },
    {
      "name": "Individual Book Details",
      "description": "Fetch catalog metadata for a single specific book.",
      "http_methods": ["GET", "PUT", "PATCH", "DELETE"],
      "path": "/api/v1/books/{gutenberg_id}/",
      "legacy_paths": ["/books/{gutenberg_id}/"],
      "requires_auth": true,
      "query_parameters": {},
      "response_content_type": "application/json",
      "success_response_sample": {
        "id": 84,
        "title": "Frankenstein; or, the modern prometheus",
        "authors": [{"name": "Mary Wollstonecraft Shelley", "birth_year": 1797, "death_year": 1851}],
        "translators": [],
        "editors": [],
        "subjects": ["Horror tales", "Science fiction"],
        "bookshelves": ["Science Fiction by Women"],
        "languages": ["English"],
        "copyright": false,
        "media_type": "Text",
        "formats": {
          "application/epub+zip": "https://www.gutenberg.org/ebooks/84.epub3.images",
          "image/jpeg": "https://bucketeer-a40dd3d4-d3bf-41be-bf7d-fa03be6746d7.s3.amazonaws.com/covers/84_cover.jpg?AWSAccessKeyId=..."
        },
        "download_count": 92345,
        "summaries": ["A gothic horror novel..."]
      },
      "failure_response_sample": {
        "detail": "Not found."
      },
      "notes": "Writing/deleting requires Admin session cookies (API Key is read-only). Gutenberg ID maps to Project Gutenberg catalog book ID."
    },
    {
      "name": "Languages Lookups List",
      "description": "List all language codes present in the database to populate search filters dynamically in the mobile app.",
      "http_methods": ["GET"],
      "path": "/api/v1/languages/",
      "legacy_paths": ["/languages/"],
      "requires_auth": true,
      "query_parameters": {},
      "response_content_type": "application/json",
      "success_response_sample": [
        {"code": "en"},
        {"code": "es"},
        {"code": "fr"}
      ],
      "notes": "Returned without pagination limits for simpler dropdown select mappings."
    },
    {
      "name": "Bookshelves Lookups List",
      "description": "List all bookshelf names to populate category tags or list navigation filters dynamically.",
      "http_methods": ["GET"],
      "path": "/api/v1/bookshelves/",
      "legacy_paths": ["/bookshelves/"],
      "requires_auth": true,
      "query_parameters": {},
      "response_content_type": "application/json",
      "success_response_sample": [
        {"name": "Adventure"},
        {"name": "Arthurian Legends"},
        {"name": "Science Fiction"}
      ],
      "notes": "Returned without pagination limits."
    },
    {
      "name": "Subjects Lookups List",
      "description": "List all book subject descriptions for tag browsing.",
      "http_methods": ["GET"],
      "path": "/api/v1/subjects/",
      "legacy_paths": ["/subjects/"],
      "requires_auth": true,
      "query_parameters": {},
      "response_content_type": "application/json",
      "success_response_sample": {
        "count": 1824,
        "next": "https://gutenberg-bookmarked-737fe6b6f1ee.herokuapp.com/api/v1/subjects/?page=2",
        "previous": null,
        "results": [
          {"name": "Arthurian romances"},
          {"name": "Horror tales"}
        ]
      }
    },
    {
      "name": "Request Ebook Cache Job",
      "description": "Trigger dynamic S3 caching check and Gutenberg mirror fetch. Used to download books without triggering 30s router timeouts.",
      "http_methods": ["GET"],
      "path": "/api/v1/content/{gutenberg_id}/",
      "legacy_paths": ["/content/{gutenberg_id}/"],
      "requires_auth": true,
      "query_parameters": {
        "format": {
          "type": "string",
          "required": false,
          "description": "Target format (defaults to 'epub'). Supported values: 'epub', 'txt', 'plain', 'html', 'kindle'."
        }
      },
      "response_content_type": "application/json",
      "response_codes": {
        "302": {
          "description": "Cache Hit. Automatically redirects to the secure S3 Presigned download URL."
        },
        "202": {
          "description": "Cache Miss. Job enqueued for background worker. Client must begin polling status_url.",
          "sample_payload": {
            "status": "pending",
            "gutenberg_id": "84",
            "format": "application/epub+zip",
            "message": "Content is being prepared. Poll /status/ for updates.",
            "status_url": "/api/v1/content/84/status/?format=epub"
          }
        },
        "404": {
          "description": "Gutenberg book ID not found.",
          "sample_payload": {
            "error": "Not Found",
            "message": "Book with Gutenberg ID 999999 not found."
          }
        }
      }
    },
    {
      "name": "Ebook Cache Job Status / Download Url",
      "description": "Poll the caching status. Returns status checks and the final S3 download URL.",
      "http_methods": ["GET"],
      "path": "/api/v1/content/{gutenberg_id}/status/",
      "legacy_paths": ["/content/{gutenberg_id}/status/"],
      "requires_auth": true,
      "query_parameters": {
        "format": {
          "type": "string",
          "required": false,
          "description": "Target format (defaults to 'epub')."
        }
      },
      "response_content_type": "application/json",
      "states": {
        "pending": {
          "status": "pending",
          "gutenberg_id": "84",
          "format": "application/epub+zip",
          "url": null,
          "file_size_bytes": null,
          "completed_at": null,
          "error": null
        },
        "fetching": {
          "status": "fetching",
          "gutenberg_id": "84",
          "format": "application/epub+zip",
          "url": null,
          "file_size_bytes": null,
          "completed_at": null,
          "error": null
        },
        "failed": {
          "status": "failed",
          "gutenberg_id": "84",
          "format": "application/epub+zip",
          "url": null,
          "file_size_bytes": null,
          "completed_at": null,
          "error": "S3 upload failed: An error occurred (AccessControlListNotSupported)"
        },
        "ready": {
          "status": "ready",
          "gutenberg_id": "84",
          "format": "application/epub+zip",
          "url": "https://bucketeer-a40dd3d4-d3bf-41be-bf7d-fa03be6746d7.s3.amazonaws.com/books/84/pg84.epub?X-Amz-Algorithm=AWS4-HMAC-SHA256&...",
          "file_size_bytes": 356363,
          "completed_at": "2026-07-13T15:49:51.591845",
          "error": null
        }
      },
      "notes": "When state is 'ready', the 'url' field contains a secure temporary S3 Presigned URL (valid for 1 hour). Use 'file_size_bytes' to drive the mobile app's download progress percentage tracker."
    }
  ]
}
